{
  "stations": [
    {
      "rr_code": "FRWNH",
      "uic_code": "87218156",
      "type": "Station",
      "description": "WANNEHAIN FRONTIERE",
      "coordinate": {
        "latitude": 50.56753,
        "longitude": 3.26529
      }
    },
    {
      "rr_code": "FRWNH",
      "uic_code": "87218156",
      "type": "Station",
      "description": "NANTES",
      "coordinate": {
        "latitude": 50.56753,
        "longitude": 3.26529
      }
    },
    {
      "rr_code": "BEHEI",
      "uic_code": "88121533",
      "type": "Station",
      "description": "HEIZIJDE",
      "coordinate": {
        "latitude": 50.99827,
        "longitude": 4.1533
      }
    },
    {
      "rr_code": "BEHER",
      "uic_code": "88857532",
      "type": "Station",
      "description": "HERSEAUX",
      "coordinate": {
        "latitude": 50.715591,
        "longitude": 3.24234
      }
    },
    {
      "rr_code": "BEHET",
      "uic_code": "88218321",
      "type": "Station",
      "description": "HEIST-OP-DEN-BERG",
      "coordinate": {
        "latitude": 51.07443,
        "longitude": 4.72952
      }
    },
    {
      "rr_code": "GBAWY",
      "uic_code": "70430306",
      "type": "Station",
      "description": "ABERYSTWYTH",
      "coordinate": {
        "latitude": 52.414,
        "longitude": -4.0816
      }
    },
    {
      "rr_code": "FRWPA",
      "uic_code": "87279927",
      "type": "Station",
      "description": "VAUCHONVILLIERS MAIRIE",
      "coordinate": {
        "latitude": 48.2656,
        "longitude": 4.5259
      }
    },
    {
      "rr_code": "NLWAF",
      "uic_code": "84006973",
      "type": "Station",
      "description": "WINSUM",
      "coordinate": {
        "latitude": 53.331976,
        "longitude": 6.517715
      }
    },
    {
      "rr_code": "NLWAE",
      "uic_code": "84006791",
      "type": "Station",
      "description": "WARFFUM",
      "coordinate": {
        "latitude": 53.393408,
        "longitude": 6.559259
      }
    },
    {
      "rr_code": "NLWAD",
      "uic_code": "84007062",
      "type": "Station",
      "description": "WORKUM",
      "coordinate": {
        "latitude": 52.980533,
        "longitude": 5.447116
      }
    },
    {
      "rr_code": "NLWAC",
      "uic_code": "84007021",
      "type": "Station",
      "description": "WOERDEN",
      "coordinate": {
        "latitude": 52.08789,
        "longitude": 4.885187
      }
    },
    {
      "rr_code": "NLWAB",
      "uic_code": "84007070",
      "type": "Station",
      "description": "WORMERVEER",
      "coordinate": {
        "latitude": 52.497209,
        "longitude": 4.790001
      }
    },
    {
      "rr_code": "NLWAA",
      "uic_code": "84003061",
      "type": "Station",
      "description": "HEERHUGOWAARD",
      "coordinate": {
        "latitude": 52.665051,
        "longitude": 4.830088
      }
    },
    {
      "rr_code": "PLJUR",
      "uic_code": "51010017",
      "type": "Station",
      "description": "JURATA",
      "coordinate": {
        "latitude": 54.683417,
        "longitude": 18.714682
      }
    },
    {
      "rr_code": "HRKAA",
      "uic_code": "78750604",
      "type": "Station",
      "description": "KARLOVAC",
      "coordinate": {
        "latitude": 45.492945,
        "longitude": 15.555344
      }
    },
    {
      "rr_code": "HRKAB",
      "uic_code": "78765081",
      "type": "Station",
      "description": "KASTEL STARI",
      "coordinate": {
        "latitude": 43.553236,
        "longitude": 16.346826
      }
    },
    {
      "rr_code": "BEHAB",
      "uic_code": "88143081",
      "type": "Station",
      "description": "HALLE",
      "coordinate": {
        "latitude": 50.7332,
        "longitude": 4.2395
      }
    },
    {
      "rr_code": "BEHAC",
      "uic_code": "88416651",
      "type": "Station",
      "description": "MILMORT",
      "coordinate": {
        "latitude": 50.693364,
        "longitude": 5.599325
      }
    },
    {
      "rr_code": "BEHAA",
      "uic_code": "88416081",
      "type": "Station",
      "description": "HERSTAL",
      "coordinate": {
        "latitude": 50.6604,
        "longitude": 5.62235
      }
    }
  ]
}